<svg width="41" height="41" viewBox="0 0 41 41" fill="none" xmlns="http://www.w3.org/2000/svg">
<path d="M29.9862 7.68121L5.98315 0.200256L2.97681 3.12859L21.5923 16.0311L20.9064 17.0205L28.6197 9.77753L29.2697 9.98011L29.628 8.83066L29.9862 7.68121Z" fill="#00CCB0"/>
<path d="M25.156 19.9758L38.0085 39.0351L41.0002 36.1211L33.3946 11.6029L32.2447 11.9596V11.9595V11.9596L31.0948 12.3162L31.2822 12.9201L23.9295 20.2575L22.9312 20.9308L23.5097 21.7886L25.156 19.9758Z" fill="#00A992"/>
<path d="M8.10278 32.985L12.3247 40.7998L14.5674 38.8535L15.5414 27.5991L8.10278 32.985Z" fill="#00A992"/>
<path d="M6.87264 31.998L0 27.9898L1.88515 25.7138L12.8804 25.2416L6.87264 31.998Z" fill="#00CCB0"/>
<path d="M37.875 2.34498L34.2494 6.88371L26.1185 16.8881L5.18922 35.3379C5.18681 35.3258 5.18841 35.3162 5.19002 35.309L5.44365 33.8225C5.5817 33.0175 5.92282 32.2542 6.43089 31.6153L11.9731 24.6396C17.8275 17.696 23.1947 12.2662 29.9176 6.484L31.1897 5.38993C31.1897 5.38993 37.8292 2.29762 37.875 2.34498Z" fill="#00CCB0"/>
<path d="M35.6203 9.93934L34.4934 11.1818C28.5362 17.7506 22.9676 22.9725 15.8723 28.6423L8.48483 34.2014C7.96552 34.5922 7.38281 34.8708 6.75354 35.0305L5.28954 35.4013C5.28151 35.4037 5.26867 35.4061 5.25422 35.4029C5.23255 35.382 5.21008 35.3604 5.18921 35.3387V35.3379L26.8733 14.0978L34.2439 6.87809L37.5221 4.31897C37.5679 4.36552 35.6203 9.93934 35.6203 9.93934Z" fill="#00A992"/>
<path d="M39.806 1.42981L34.2437 6.87809L34.2373 6.87167C33.5888 6.20227 32.746 5.7223 31.7957 5.51923L31.1897 5.39001L34.0687 2.91388C35.1025 2.02456 36.3699 1.44426 37.7352 1.23718L38.7874 1.07665C39.1037 1.02849 39.4143 1.10795 39.6647 1.29256C39.6912 1.31664 39.7169 1.34152 39.7426 1.3664C39.7642 1.38727 39.7851 1.40814 39.806 1.42981Z" fill="#00CCB0"/>
<path d="M40.1318 2.45638L39.9439 3.50462C39.6999 4.86348 39.0875 6.11639 38.1717 7.1261L35.6202 9.93934L35.507 9.33014C35.3312 8.38624 34.8825 7.53946 34.2437 6.87809L39.8059 1.42981C39.8516 1.47636 39.8958 1.52452 39.9391 1.57428C40.1173 1.82952 40.1888 2.14175 40.1318 2.45638Z" fill="#00A992"/>
</svg>
