<svg width="24" height="12" viewBox="0 0 24 12" fill="none" xmlns="http://www.w3.org/2000/svg">
<rect x="0.25" y="0.25" width="23.5" height="11.5" rx="0.75" stroke="#00A992" stroke-width="0.5"/>
<path d="M5.67 9.12C7.7 9.12 8.68 7.99 8.68 6.33V2.33H7.23V6.29C7.23 7.22 6.7 7.86 5.67 7.86C4.64 7.86 4.1 7.22 4.1 6.29V2.33H2.66V6.34C2.66 7.98 3.64 9.12 5.67 9.12ZM12.114 9.12C13.914 9.12 14.784 8.2 14.784 6.98C14.784 4.49 10.954 5.2 10.954 4.14C10.954 3.74 11.294 3.47 11.904 3.47C12.584 3.47 13.304 3.7 13.844 4.2L14.634 3.16C13.974 2.55 13.094 2.23 12.034 2.23C10.464 2.23 9.50398 3.15 9.50398 4.26C9.50398 6.77 13.344 5.96 13.344 7.14C13.344 7.52 12.964 7.88 12.184 7.88C11.264 7.88 10.534 7.47 10.064 6.98L9.29398 8.06C9.91398 8.69 10.834 9.12 12.114 9.12ZM18.1201 9C20.2101 9 21.6601 7.68 21.6601 5.67C21.6601 3.66 20.2101 2.33 18.1201 2.33H15.4901V9H18.1201ZM18.1201 7.75H16.9101V3.58H18.1201C19.4901 3.58 20.2101 4.49 20.2101 5.67C20.2101 6.8 19.4401 7.75 18.1201 7.75Z" fill="#00A992"/>
</svg>
